src/func_extract/test/accum/rst.vcd
$scope module accum $end
$var wire 3 n1 _00_ $end
$var wire 1 n2 _01_ $end
$var wire 3 n3 _02_ $end
$var wire 3 n4 _03_ $end
$var wire 3 n5 _04_ $end
$var wire 3 n6 _05_ $end
$var wire 3 n7 _06_ $end
$var wire 3 n8 _07_ $end
$var wire 32 n9 _08_ $end
$var wire 1 n10 _09_ $end
$var wire 1 n11 clk $end
$var wire 3 n12 cnt $end
$var wire 3 n13 cnt_nxt $end
$var wire 3 n14 data $end
$var wire 1 n15 finish $end
$var wire 1 n16 finish_nxt $end
$var wire 1 n17 rst $end
$var wire 1 n18 start $end
$var wire 3 n19 sum $end
$var wire 3 n20 sum_nxt $end
$var wire 3 n21 timer $end
$var wire 3 n22 timer_nxt $end
$upscope $end
$enddefinitions $end
#0
b001 n22
b000 n21
b000 n20
b000 n19
bx n18
bx n17
b0 n16
b0 n15
bxxx n14
b000 n13
b000 n12
bx n11
b0 n10
bxxxxxxxxxxxxxxxxxxxxxxxxxxxxx000 n9
b000 n8
b111 n7
b001 n6
b001 n5
b001 n4
b000 n3
b0 n2
b000 n1
#5
b0 n11
#10
b010 n22
b001 n21
b1 n11
b010 n6
b010 n4
#15
b0 n11
#20
b011 n22
b010 n21
b1 n11
b011 n6
b011 n4
#25
b0 n11
#30
b100 n22
b011 n21
b1 n11
b100 n6
b100 n4
#35
b0 n11
#40
b101 n22
b100 n21
b1 n11
b101 n6
b101 n4
#45
b0 n11
#50
b110 n22
b101 n21
b1 n11
b110 n6
b110 n4
#55
b0 n11
#60
b111 n22
b110 n21
b1 n11
b111 n6
b111 n4
#65
b0 n11
#70
b000 n22
b111 n21
b1 n11
b000 n6
b000 n4
#75
b0 n11
#80
b001 n22
b000 n21
b1 n11
b001 n6
b001 n4
#85
b0 n11
#90
b010 n22
b001 n21
b1 n11
b010 n6
b010 n4
#95
b0 n11
#100
b011 n22
b010 n21
b1 n11
b011 n6
b011 n4
#105
b0 n11
#110
b100 n22
b011 n21
b1 n11
b100 n6
b100 n4
#115
b0 n11
#120
b101 n22
b100 n21
b1 n11
b101 n6
b101 n4
#125
b0 n11
#130
b110 n22
b101 n21
b1 n11
b110 n6
b110 n4
#135
b0 n11
#140
b111 n22
b110 n21
b1 n11
b111 n6
b111 n4
#145
b0 n11
#150
b000 n22
b111 n21
b1 n11
b000 n6
b000 n4
#155
b0 n11
#160
b001 n22
b000 n21
b1 n11
b001 n6
b001 n4
#165
b0 n11
#170
b010 n22
b001 n21
b1 n11
b010 n6
b010 n4
#175
b0 n11
#180
b011 n22
b010 n21
b1 n11
b011 n6
b011 n4
#185
b0 n11
#190
b100 n22
b011 n21
b1 n11
b100 n6
b100 n4
#195
b0 n11
#200
b101 n22
b100 n21
b1 n11
b101 n6
b101 n4
