SHA/SYN/rst.vcd
$scope module sha_top $end
$var wire 1 n1 ack $end
$var wire 16 n2 addr $end
$var wire 16 n3 block_counter $end
$var wire 16 n4 block_counter_next $end
$var wire 6 n5 byte_counter $end
$var wire 6 n6 byte_counter_next $end
$var wire 6 n7 byte_counter_next_rw $end
$var wire 16 n8 bytes_read_next $end
$var wire 1 n9 clk $end
$var wire 8 n10 data_in $end
$var wire 8 n11 data_out $end
$var wire 8 n12 data_out_len $end
$var wire 8 n13 data_out_rd_addr $end
$var wire 8 n14 data_out_state $end
$var wire 8 n15 data_out_wr_addr $end
$var wire 1 n16 in_addr_range $end
$var wire 1 n17 read_last_byte_acked $end
$var wire 1 n18 reading_last_byte $end
$var wire 16 n19 reg_bytes_read $end
$var wire 1 n20 rst $end
$var wire 1 n21 sel_reg_len $end
$var wire 1 n22 sel_reg_rd_addr $end
$var wire 1 n23 sel_reg_start $end
$var wire 1 n24 sel_reg_state $end
$var wire 1 n25 sel_reg_wr_addr $end
$var wire 512 n26 sha_core_block $end
$var wire 512 n27 sha_core_block_next $end
$var wire 512 n28 sha_core_block_read_data_next $end
$var wire 160 n29 sha_core_digest $end
$var wire 1 n30 sha_core_digest_valid $end
$var wire 1 n31 sha_core_init $end
$var wire 1 n32 sha_core_next $end
$var wire 1 n33 sha_core_ready $end
$var wire 1 n34 sha_core_ready_r $end
$var wire 1 n35 sha_core_rst_n $end
$var wire 1 n36 sha_finished $end
$var wire 16 n37 sha_len $end
$var wire 1 n38 sha_more_blocks $end
$var wire 16 n39 sha_rdaddr $end
$var wire 160 n40 sha_reg_digest $end
$var wire 68 n41 sha_reg_digest_next $end
$var wire 16 n42 sha_reg_len $end
$var wire 16 n43 sha_reg_rd_addr $end
$var wire 3 n44 sha_reg_state $end
$var wire 16 n45 sha_reg_wr_addr $end
$var wire 3 n46 sha_state $end
$var wire 1 n47 sha_state_idle $end
$var wire 3 n48 sha_state_next $end
$var wire 1 n49 sha_state_next_idle $end
$var wire 3 n50 sha_state_next_op2 $end
$var wire 2 n51 sha_state_next_read_data $end
$var wire 3 n52 sha_state_next_write_data $end
$var wire 1 n53 sha_state_op1 $end
$var wire 1 n54 sha_state_op2 $end
$var wire 1 n55 sha_state_read_data $end
$var wire 1 n56 sha_state_write_data $end
$var wire 16 n57 sha_wraddr $end
$var wire 1 n58 start_op $end
$var wire 1 n59 stb $end
$var wire 1 n60 wr $end
$var wire 1 n61 wren $end
$var wire 1 n62 write_last_byte_acked $end
$var wire 1 n63 writing_last_byte $end
$var wire 1 n64 xram_ack $end
$var wire 16 n65 xram_addr $end
$var wire 8 n66 xram_data_in $end
$var wire 8 n67 xram_data_out $end
$var wire 1 n68 xram_stb $end
$var wire 1 n69 xram_wr $end
$scope module sha_reg_wr_addr_i $end
$var wire 1 n70 addr $end
$var wire 1 n71 clk $end
$var wire 8 n72 data_in $end
$var wire 8 n73 data_out $end
$var wire 8 n74 data_out_mux $end
$var wire 1 n75 en $end
$var wire 8 n76 reg0_next $end
$var wire 8 n77 reg1_next $end
$var wire 16 n78 reg_out $end
$var wire 1 n79 rst $end
$var wire 1 n80 wr $end
$var wire 1 n81 wr0 $end
$var wire 1 n82 wr1 $end
$upscope $end
$scope module sha_reg_rd_addr_i $end
$var wire 1 n83 addr $end
$var wire 1 n84 clk $end
$var wire 8 n85 data_in $end
$var wire 8 n86 data_out $end
$var wire 8 n87 data_out_mux $end
$var wire 1 n88 en $end
$var wire 8 n89 reg0_next $end
$var wire 8 n90 reg1_next $end
$var wire 16 n91 reg_out $end
$var wire 1 n92 rst $end
$var wire 1 n93 wr $end
$var wire 1 n94 wr0 $end
$var wire 1 n95 wr1 $end
$upscope $end
$scope module sha_reg_len_i $end
$var wire 1 n96 addr $end
$var wire 1 n97 clk $end
$var wire 8 n98 data_in $end
$var wire 8 n99 data_out $end
$var wire 8 n100 data_out_mux $end
$var wire 1 n101 en $end
$var wire 8 n102 reg0_next $end
$var wire 8 n103 reg1_next $end
$var wire 16 n104 reg_out $end
$var wire 1 n105 rst $end
$var wire 1 n106 wr $end
$var wire 1 n107 wr0 $end
$var wire 1 n108 wr1 $end
$upscope $end
$scope module sha1_core_i $end
$var wire 32 n109 H0_new $end
$var wire 32 n110 H0_reg $end
$var wire 32 n111 H1_new $end
$var wire 32 n112 H1_reg $end
$var wire 32 n113 H2_new $end
$var wire 32 n114 H2_reg $end
$var wire 32 n115 H3_new $end
$var wire 32 n116 H3_reg $end
$var wire 32 n117 H4_new $end
$var wire 32 n118 H4_reg $end
$var wire 1 n119 H_we $end
$var wire 1 n120 a_e_we $end
$var wire 32 n121 a_new $end
$var wire 32 n122 a_reg $end
$var wire 32 n123 b_new $end
$var wire 32 n124 b_reg $end
$var wire 512 n125 block $end
$var wire 32 n126 c_new $end
$var wire 32 n127 c_reg $end
$var wire 1 n128 clk $end
$var wire 32 n129 d_new $end
$var wire 32 n130 d_reg $end
$var wire 160 n131 digest $end
$var wire 1 n132 digest_init $end
$var wire 1 n133 digest_update $end
$var wire 1 n134 digest_valid $end
$var wire 1 n135 digest_valid_new $end
$var wire 1 n136 digest_valid_reg $end
$var wire 1 n137 digest_valid_we $end
$var wire 32 n138 e_new $end
$var wire 32 n139 e_reg $end
$var wire 1 n140 first_block $end
$var wire 1 n141 init $end
$var wire 1 n142 next $end
$var wire 1 n143 ready $end
$var wire 1 n144 ready_flag $end
$var wire 1 n145 reset_n $end
$var wire 1 n146 round_ctr_inc $end
$var wire 7 n147 round_ctr_new $end
$var wire 7 n148 round_ctr_reg $end
$var wire 1 n149 round_ctr_rst $end
$var wire 1 n150 round_ctr_we $end
$var wire 2 n151 sha1_ctrl_new $end
$var wire 2 n152 sha1_ctrl_reg $end
$var wire 1 n153 sha1_ctrl_we $end
$var wire 1 n154 state_init $end
$var wire 1 n155 state_update $end
$var wire 32 n156 w $end
$var wire 1 n157 w_init $end
$var wire 1 n158 w_next $end
$scope module w_mem_inst $end
$var wire 512 n159 block $end
$var wire 1 n160 clk $end
$var wire 1 n161 init $end
$var wire 1 n162 next $end
$var wire 1 n163 reset_n $end
$var wire 1 n164 sha1_w_mem_ctrl_new $end
$var wire 1 n165 sha1_w_mem_ctrl_reg $end
$var wire 1 n166 sha1_w_mem_ctrl_we $end
$var wire 32 n167 w $end
$var wire 32 n168 w_0 $end
$var wire 32 n169 w_13 $end
$var wire 32 n170 w_16 $end
$var wire 32 n171 w_2 $end
$var wire 32 n172 w_8 $end
$var wire 1 n173 w_ctr_inc $end
$var wire 7 n174 w_ctr_new $end
$var wire 7 n175 w_ctr_reg $end
$var wire 32 n176 w_mem00_new $end
$var wire 32 n177 w_mem01_new $end
$var wire 32 n178 w_mem02_new $end
$var wire 32 n179 w_mem03_new $end
$var wire 32 n180 w_mem04_new $end
$var wire 32 n181 w_mem05_new $end
$var wire 32 n182 w_mem06_new $end
$var wire 32 n183 w_mem07_new $end
$var wire 32 n184 w_mem08_new $end
$var wire 32 n185 w_mem09_new $end
$var wire 32 n186 w_mem10_new $end
$var wire 32 n187 w_mem11_new $end
$var wire 32 n188 w_mem12_new $end
$var wire 32 n189 w_mem13_new $end
$var wire 32 n190 w_mem14_new $end
$var wire 32 n191 w_mem15_new $end
$var wire 1 n192 w_mem_we $end
$var wire 32 n193 w_new $end
$var wire 32 n194 w_tmp $end
$upscope $end
$upscope $end
$upscope $end
$enddefinitions $end
#0
bx n69
bx n68
bxxxxxxxx n67
bxxxxxxxx n66
b0000000000000000 n65
bx n64
bx n63
bx n62
bx n61
bx n60
bx n59
bx n58
bxxxxxxxxxxxxxxxx n57
bx n56
bx n55
bx n54
bx n53
bxxx n52
bxx n51
bxxx n50
bx n49
b000 n48
bx n47
bxxx n46
bxxxxxxxxxxxxxxxx n45
bxxx n44
bxxxxxxxxxxxxxxxx n43
bxxxxxxxxxxxxxxxx n42
bxxxxxxxxxxxxxxxxxxxxxxxxxxxxxxxxxxxxxxxxxxxxxxxxxxxxxxxxxxxxxxxxxxxx n41
bxxxxxxxxxxxxxxxxxxxxxxxxxxxxxxxxxxxxxxxxxxxxxxxxxxxxxxxxxxxxxxxxxxxxxxxxxxxxxxxxxxxxxxxxxxxxxxxxxxxxxxxxxxxxxxxxxxxxxxxxxxxxxxxxxxxxxxxxxxxxxxxxxxxxxxxxxxxxxxxx n40
bxxxxxxxxxxxxxxxx n39
bx n38
bxxxxxxxxxxxxxxxx n37
bx n36
b0 n35
bx n34
bx n33
bx n32
bx n31
bx n30
bxxxxxxxxxxxxxxxxxxxxxxxxxxxxxxxxxxxxxxxxxxxxxxxxxxxxxxxxxxxxxxxxxxxxxxxxxxxxxxxxxxxxxxxxxxxxxxxxxxxxxxxxxxxxxxxxxxxxxxxxxxxxxxxxxxxxxxxxxxxxxxxxxxxxxxxxxxxxxxxx n29
bxxxxxxxxxxxxxxxxxxxxxxxxxxxxxxxxxxxxxxxxxxxxxxxxxxxxxxxxxxxxxxxxxxxxxxxxxxxxxxxxxxxxxxxxxxxxxxxxxxxxxxxxxxxxxxxxxxxxxxxxxxxxxxxxxxxxxxxxxxxxxxxxxxxxxxxxxxxxxxxxxxxxxxxxxxxxxxxxxxxxxxxxxxxxxxxxxxxxxxxxxxxxxxxxxxxxxxxxxxxxxxxxxxxxxxxxxxxxxxxxxxxxxxxxxxxxxxxxxxxxxxxxxxxxxxxxxxxxxxxxxxxxxxxxxxxxxxxxxxxxxxxxxxxxxxxxxxxxxxxxxxxxxxxxxxxxxxxxxxxxxxxxxxxxxxxxxxxxxxxxxxxxxxxxxxxxxxxxxxxxxxxxxxxxxxxxxxxxxxxxxxxxxxxxxxxxxxxxxxxxxxxxxxxxxxxxxxxxxxxxxxxxxxxxxxxxxxxxxxxxxxxxxxxxxxxxxxxxxxxxxxxxxxxxxxxxxxxxxxxxxxxxxxxxxxxx n28
bxxxxxxxxxxxxxxxxxxxxxxxxxxxxxxxxxxxxxxxxxxxxxxxxxxxxxxxxxxxxxxxxxxxxxxxxxxxxxxxxxxxxxxxxxxxxxxxxxxxxxxxxxxxxxxxxxxxxxxxxxxxxxxxxxxxxxxxxxxxxxxxxxxxxxxxxxxxxxxxxxxxxxxxxxxxxxxxxxxxxxxxxxxxxxxxxxxxxxxxxxxxxxxxxxxxxxxxxxxxxxxxxxxxxxxxxxxxxxxxxxxxxxxxxxxxxxxxxxxxxxxxxxxxxxxxxxxxxxxxxxxxxxxxxxxxxxxxxxxxxxxxxxxxxxxxxxxxxxxxxxxxxxxxxxxxxxxxxxxxxxxxxxxxxxxxxxxxxxxxxxxxxxxxxxxxxxxxxxxxxxxxxxxxxxxxxxxxxxxxxxxxxxxxxxxxxxxxxxxxxxxxxxxxxxxxxxxxxxxxxxxxxxxxxxxxxxxxxxxxxxxxxxxxxxxxxxxxxxxxxxxxxxxxxxxxxxxxxxxxxxxxxxxxxxxxx n27
bxxxxxxxxxxxxxxxxxxxxxxxxxxxxxxxxxxxxxxxxxxxxxxxxxxxxxxxxxxxxxxxxxxxxxxxxxxxxxxxxxxxxxxxxxxxxxxxxxxxxxxxxxxxxxxxxxxxxxxxxxxxxxxxxxxxxxxxxxxxxxxxxxxxxxxxxxxxxxxxxxxxxxxxxxxxxxxxxxxxxxxxxxxxxxxxxxxxxxxxxxxxxxxxxxxxxxxxxxxxxxxxxxxxxxxxxxxxxxxxxxxxxxxxxxxxxxxxxxxxxxxxxxxxxxxxxxxxxxxxxxxxxxxxxxxxxxxxxxxxxxxxxxxxxxxxxxxxxxxxxxxxxxxxxxxxxxxxxxxxxxxxxxxxxxxxxxxxxxxxxxxxxxxxxxxxxxxxxxxxxxxxxxxxxxxxxxxxxxxxxxxxxxxxxxxxxxxxxxxxxxxxxxxxxxxxxxxxxxxxxxxxxxxxxxxxxxxxxxxxxxxxxxxxxxxxxxxxxxxxxxxxxxxxxxxxxxxxxxxxxxxxxxxxxxxxx n26
bx n25
bx n24
bx n23
bx n22
bx n21
b1 n20
bxxxxxxxxxxxxxxxx n19
bx n18
bx n17
bx n16
bxxxxxxxx n15
b00000xxx n14
bxxxxxxxx n13
bxxxxxxxx n12
bxxxxxxxx n11
bxxxxxxxx n10
bx n9
bxxxxxxxxxxxxxxxx n8
bxxxxxx n7
bxxxxxx n6
bxxxxxx n5
bxxxxxxxxxxxxxxxx n4
bxxxxxxxxxxxxxxxx n3
bxxxxxxxxxxxxxxxx n2
bx n1
bx n82
bx n81
bx n80
b1 n79
bxxxxxxxxxxxxxxxx n78
bxxxxxxxx n77
bxxxxxxxx n76
bx n75
bxxxxxxxx n74
bxxxxxxxx n73
bxxxxxxxx n72
bx n71
bx n70
bx n95
bx n94
bx n93
b1 n92
bxxxxxxxxxxxxxxxx n91
bxxxxxxxx n90
bxxxxxxxx n89
bx n88
bxxxxxxxx n87
bxxxxxxxx n86
bxxxxxxxx n85
bx n84
bx n83
bx n108
bx n107
bx n106
b1 n105
bxxxxxxxxxxxxxxxx n104
bxxxxxxxx n103
bxxxxxxxx n102
bx n101
bxxxxxxxx n100
bxxxxxxxx n99
bxxxxxxxx n98
bx n97
bx n96
bx n158
bx n157
bxxxxxxxxxxxxxxxxxxxxxxxxxxxxxxxx n156
bx n155
bx n154
bx n153
bxx n152
bxx n151
bx n150
bx n149
bxxxxxxx n148
bxxxxxxx n147
bx n146
b0 n145
bx n144
bx n143
bx n142
bx n141
bx n140
bxxxxxxxxxxxxxxxxxxxxxxxxxxxxxxxx n139
bxxxxxxxxxxxxxxxxxxxxxxxxxxxxxxxx n138
bx n137
bx n136
bx n135
bx n134
bx n133
bx n132
bxxxxxxxxxxxxxxxxxxxxxxxxxxxxxxxxxxxxxxxxxxxxxxxxxxxxxxxxxxxxxxxxxxxxxxxxxxxxxxxxxxxxxxxxxxxxxxxxxxxxxxxxxxxxxxxxxxxxxxxxxxxxxxxxxxxxxxxxxxxxxxxxxxxxxxxxxxxxxxxx n131
bxxxxxxxxxxxxxxxxxxxxxxxxxxxxxxxx n130
bxxxxxxxxxxxxxxxxxxxxxxxxxxxxxxxx n129
bx n128
bxxxxxxxxxxxxxxxxxxxxxxxxxxxxxxxx n127
bxxxxxxxxxxxxxxxxxxxxxxxxxxxxxxxx n126
bxxxxxxxxxxxxxxxxxxxxxxxxxxxxxxxxxxxxxxxxxxxxxxxxxxxxxxxxxxxxxxxxxxxxxxxxxxxxxxxxxxxxxxxxxxxxxxxxxxxxxxxxxxxxxxxxxxxxxxxxxxxxxxxxxxxxxxxxxxxxxxxxxxxxxxxxxxxxxxxxxxxxxxxxxxxxxxxxxxxxxxxxxxxxxxxxxxxxxxxxxxxxxxxxxxxxxxxxxxxxxxxxxxxxxxxxxxxxxxxxxxxxxxxxxxxxxxxxxxxxxxxxxxxxxxxxxxxxxxxxxxxxxxxxxxxxxxxxxxxxxxxxxxxxxxxxxxxxxxxxxxxxxxxxxxxxxxxxxxxxxxxxxxxxxxxxxxxxxxxxxxxxxxxxxxxxxxxxxxxxxxxxxxxxxxxxxxxxxxxxxxxxxxxxxxxxxxxxxxxxxxxxxxxxxxxxxxxxxxxxxxxxxxxxxxxxxxxxxxxxxxxxxxxxxxxxxxxxxxxxxxxxxxxxxxxxxxxxxxxxxxxxxxxxxxxx n125
bxxxxxxxxxxxxxxxxxxxxxxxxxxxxxxxx n124
bxxxxxxxxxxxxxxxxxxxxxxxxxxxxxxxx n123
bxxxxxxxxxxxxxxxxxxxxxxxxxxxxxxxx n122
bxxxxxxxxxxxxxxxxxxxxxxxxxxxxxxxx n121
bx n120
bx n119
bxxxxxxxxxxxxxxxxxxxxxxxxxxxxxxxx n118
bxxxxxxxxxxxxxxxxxxxxxxxxxxxxxxxx n117
bxxxxxxxxxxxxxxxxxxxxxxxxxxxxxxxx n116
bxxxxxxxxxxxxxxxxxxxxxxxxxxxxxxxx n115
bxxxxxxxxxxxxxxxxxxxxxxxxxxxxxxxx n114
bxxxxxxxxxxxxxxxxxxxxxxxxxxxxxxxx n113
bxxxxxxxxxxxxxxxxxxxxxxxxxxxxxxxx n112
bxxxxxxxxxxxxxxxxxxxxxxxxxxxxxxxx n111
bxxxxxxxxxxxxxxxxxxxxxxxxxxxxxxxx n110
bxxxxxxxxxxxxxxxxxxxxxxxxxxxxxxxx n109
bxxxxxxxxxxxxxxxxxxxxxxxxxxxxxxxx n194
bxxxxxxxxxxxxxxxxxxxxxxxxxxxxxxxx n193
bx n192
bxxxxxxxxxxxxxxxxxxxxxxxxxxxxxxxx n191
bxxxxxxxxxxxxxxxxxxxxxxxxxxxxxxxx n190
bxxxxxxxxxxxxxxxxxxxxxxxxxxxxxxxx n189
bxxxxxxxxxxxxxxxxxxxxxxxxxxxxxxxx n188
bxxxxxxxxxxxxxxxxxxxxxxxxxxxxxxxx n187
bxxxxxxxxxxxxxxxxxxxxxxxxxxxxxxxx n186
bxxxxxxxxxxxxxxxxxxxxxxxxxxxxxxxx n185
bxxxxxxxxxxxxxxxxxxxxxxxxxxxxxxxx n184
bxxxxxxxxxxxxxxxxxxxxxxxxxxxxxxxx n183
bxxxxxxxxxxxxxxxxxxxxxxxxxxxxxxxx n182
bxxxxxxxxxxxxxxxxxxxxxxxxxxxxxxxx n181
bxxxxxxxxxxxxxxxxxxxxxxxxxxxxxxxx n180
bxxxxxxxxxxxxxxxxxxxxxxxxxxxxxxxx n179
bxxxxxxxxxxxxxxxxxxxxxxxxxxxxxxxx n178
bxxxxxxxxxxxxxxxxxxxxxxxxxxxxxxxx n177
bxxxxxxxxxxxxxxxxxxxxxxxxxxxxxxxx n176
bxxxxxxx n175
bxxxxxxx n174
bx n173
bxxxxxxxxxxxxxxxxxxxxxxxxxxxxxxxx n172
bxxxxxxxxxxxxxxxxxxxxxxxxxxxxxxxx n171
bxxxxxxxxxxxxxxxxxxxxxxxxxxxxxxxx n170
bxxxxxxxxxxxxxxxxxxxxxxxxxxxxxxxx n169
bxxxxxxxxxxxxxxxxxxxxxxxxxxxxxxxx n168
bxxxxxxxxxxxxxxxxxxxxxxxxxxxxxxxx n167
bx n166
bx n165
bx n164
b0 n163
bx n162
bx n161
bx n160
bxxxxxxxxxxxxxxxxxxxxxxxxxxxxxxxxxxxxxxxxxxxxxxxxxxxxxxxxxxxxxxxxxxxxxxxxxxxxxxxxxxxxxxxxxxxxxxxxxxxxxxxxxxxxxxxxxxxxxxxxxxxxxxxxxxxxxxxxxxxxxxxxxxxxxxxxxxxxxxxxxxxxxxxxxxxxxxxxxxxxxxxxxxxxxxxxxxxxxxxxxxxxxxxxxxxxxxxxxxxxxxxxxxxxxxxxxxxxxxxxxxxxxxxxxxxxxxxxxxxxxxxxxxxxxxxxxxxxxxxxxxxxxxxxxxxxxxxxxxxxxxxxxxxxxxxxxxxxxxxxxxxxxxxxxxxxxxxxxxxxxxxxxxxxxxxxxxxxxxxxxxxxxxxxxxxxxxxxxxxxxxxxxxxxxxxxxxxxxxxxxxxxxxxxxxxxxxxxxxxxxxxxxxxxxxxxxxxxxxxxxxxxxxxxxxxxxxxxxxxxxxxxxxxxxxxxxxxxxxxxxxxxxxxxxxxxxxxxxxxxxxxxxxxxxxxx n159
#5
b0 n9
b0 n71
b0 n84
b0 n97
b0 n128
b0 n160
#10
b0 n69
b0 n68
b00000000 n67
b0 n63
b0 n62
b0000000000000000 n57
b0 n56
b0 n55
b0 n54
b0 n53
b100 n52
b011 n50
b00x n48
b1 n47
b000 n46
b0000000000000000 n45
b000 n44
b0000000000000000 n43
b0000000000000000 n42
b00000000000000000000000000000000000000000000000000000000000000000000 n41
b0000000000000000000000000000000000000000000000000000000000000000000000000000000000000000000000000000000000000000000000000000000000000000000000000000000000000000 n40
b0000000000000000 n39
b0 n38
b0000000000000000 n37
b0 n36
b0 n34
b1 n33
b0 n32
b0 n31
b0 n30
b0000000000000000000000000000000000000000000000000000000000000000000000000000000000000000000000000000000000000000000000000000000000000000000000000000000000000000 n29
bxxxxxxxx000000000000000000000000000000000000000000000000000000000000000000000000000000000000000000000000000000000000000000000000000000000000000000000000000000000000000000000000000000000000000000000000000000000000000000000000000000000000000000000000000000000000000000000000000000000000000000000000000000000000000000000000000000000000000000000000000000000000000000000000000000000000000000000000000000000000000000000000000000000000000000000000000000000000000000000000000000000000000000000000000000000000000000000000 n28
b00000000000000000000000000000000000000000000000000000000000000000000000000000000000000000000000000000000000000000000000000000000000000000000000000000000000000000000000000000000000000000000000000000000000000000000000000000000000000000000000000000000000000000000000000000000000000000000000000000000000000000000000000000000000000000000000000000000000000000000000000000000000000000000000000000000000000000000000000000000000000000000000000000000000000000000000000000000000000000000000000000000000000000000000000000000 n27
b00000000000000000000000000000000000000000000000000000000000000000000000000000000000000000000000000000000000000000000000000000000000000000000000000000000000000000000000000000000000000000000000000000000000000000000000000000000000000000000000000000000000000000000000000000000000000000000000000000000000000000000000000000000000000000000000000000000000000000000000000000000000000000000000000000000000000000000000000000000000000000000000000000000000000000000000000000000000000000000000000000000000000000000000000000000 n26
b0000000000000000 n19
b1 n18
b00000000 n15
b00000000 n14
b00000000 n13
b00000000 n12
b00000000 n11
b1 n9
b0000000000000000 n8
b000000 n7
b000000 n6
b000000 n5
b0000000000000000 n4
b0000000000000000 n3
b0000000000000000 n78
b00000000 n77
b00000000 n76
b00000000 n74
b00000000 n73
b1 n71
b0000000000000000 n91
b00000000 n90
b00000000 n89
b00000000 n87
b00000000 n86
b1 n84
b0000000000000000 n104
b00000000 n103
b00000000 n102
b00000000 n100
b00000000 n99
b1 n97
b0 n158
b0 n157
b00000000000000000000000000000000 n156
b0 n155
b0 n154
b0 n153
b00 n152
b00 n151
b0 n150
b0 n149
b0000000 n148
b0000000 n147
b0 n146
b1 n144
b1 n143
b0 n142
b0 n141
b0 n140
b00000000000000000000000000000000 n139
b00000000000000000000000000000000 n138
b0 n137
b0 n136
b0 n135
b0 n134
b0 n133
b0 n132
b0000000000000000000000000000000000000000000000000000000000000000000000000000000000000000000000000000000000000000000000000000000000000000000000000000000000000000 n131
b00000000000000000000000000000000 n130
b00000000000000000000000000000000 n129
b1 n128
b00000000000000000000000000000000 n127
b00000000000000000000000000000000 n126
b00000000000000000000000000000000000000000000000000000000000000000000000000000000000000000000000000000000000000000000000000000000000000000000000000000000000000000000000000000000000000000000000000000000000000000000000000000000000000000000000000000000000000000000000000000000000000000000000000000000000000000000000000000000000000000000000000000000000000000000000000000000000000000000000000000000000000000000000000000000000000000000000000000000000000000000000000000000000000000000000000000000000000000000000000000000 n125
b00000000000000000000000000000000 n124
b00000000000000000000000000000000 n123
b00000000000000000000000000000000 n122
b00000000000000000000000000000000 n121
b0 n120
b0 n119
b00000000000000000000000000000000 n118
b00000000000000000000000000000000 n117
b00000000000000000000000000000000 n116
b00000000000000000000000000000000 n115
b00000000000000000000000000000000 n114
b00000000000000000000000000000000 n113
b00000000000000000000000000000000 n112
b00000000000000000000000000000000 n111
b00000000000000000000000000000000 n110
b00000000000000000000000000000000 n109
b00000000000000000000000000000000 n194
b00000000000000000000000000000000 n193
b0 n192
b00000000000000000000000000000000 n191
b00000000000000000000000000000000 n190
b00000000000000000000000000000000 n189
b00000000000000000000000000000000 n188
b00000000000000000000000000000000 n187
b00000000000000000000000000000000 n186
b00000000000000000000000000000000 n185
b00000000000000000000000000000000 n184
b00000000000000000000000000000000 n183
b00000000000000000000000000000000 n182
b00000000000000000000000000000000 n181
b00000000000000000000000000000000 n180
b00000000000000000000000000000000 n179
b00000000000000000000000000000000 n178
b00000000000000000000000000000000 n177
b00000000000000000000000000000000 n176
b0000000 n175
b0000000 n174
b0 n173
b00000000000000000000000000000000 n172
b00000000000000000000000000000000 n171
b00000000000000000000000000000000 n170
b00000000000000000000000000000000 n169
b00000000000000000000000000000000 n168
b00000000000000000000000000000000 n167
b0 n166
b0 n165
b0 n164
b0 n162
b0 n161
b1 n160
b00000000000000000000000000000000000000000000000000000000000000000000000000000000000000000000000000000000000000000000000000000000000000000000000000000000000000000000000000000000000000000000000000000000000000000000000000000000000000000000000000000000000000000000000000000000000000000000000000000000000000000000000000000000000000000000000000000000000000000000000000000000000000000000000000000000000000000000000000000000000000000000000000000000000000000000000000000000000000000000000000000000000000000000000000000000 n159
#15
b0 n9
b0 n71
b0 n84
b0 n97
b0 n128
b0 n160
#20
b1 n9
b1 n71
b1 n84
b1 n97
b1 n128
b1 n160
#25
b0 n9
b0 n71
b0 n84
b0 n97
b0 n128
b0 n160
#30
b1 n9
b1 n71
b1 n84
b1 n97
b1 n128
b1 n160
#35
b0 n9
b0 n71
b0 n84
b0 n97
b0 n128
b0 n160
#40
b1 n9
b1 n71
b1 n84
b1 n97
b1 n128
b1 n160
#45
b0 n9
b0 n71
b0 n84
b0 n97
b0 n128
b0 n160
#50
b1 n9
b1 n71
b1 n84
b1 n97
b1 n128
b1 n160
#55
b0 n9
b0 n71
b0 n84
b0 n97
b0 n128
b0 n160
#60
b1 n9
b1 n71
b1 n84
b1 n97
b1 n128
b1 n160
#65
b0 n9
b0 n71
b0 n84
b0 n97
b0 n128
b0 n160
#70
b1 n9
b1 n71
b1 n84
b1 n97
b1 n128
b1 n160
#75
b0 n9
b0 n71
b0 n84
b0 n97
b0 n128
b0 n160
#80
b1 n9
b1 n71
b1 n84
b1 n97
b1 n128
b1 n160
#85
b0 n9
b0 n71
b0 n84
b0 n97
b0 n128
b0 n160
#90
b1 n9
b1 n71
b1 n84
b1 n97
b1 n128
b1 n160
#95
b0 n9
b0 n71
b0 n84
b0 n97
b0 n128
b0 n160
#100
b1 n9
b1 n71
b1 n84
b1 n97
b1 n128
b1 n160
#105
b0 n9
b0 n71
b0 n84
b0 n97
b0 n128
b0 n160
#110
b1 n9
b1 n71
b1 n84
b1 n97
b1 n128
b1 n160
#115
b0 n9
b0 n71
b0 n84
b0 n97
b0 n128
b0 n160
#120
b1 n9
b1 n71
b1 n84
b1 n97
b1 n128
b1 n160
#125
b0 n9
b0 n71
b0 n84
b0 n97
b0 n128
b0 n160
#130
b1 n9
b1 n71
b1 n84
b1 n97
b1 n128
b1 n160
#135
b0 n9
b0 n71
b0 n84
b0 n97
b0 n128
b0 n160
#140
b1 n9
b1 n71
b1 n84
b1 n97
b1 n128
b1 n160
#145
b0 n9
b0 n71
b0 n84
b0 n97
b0 n128
b0 n160
#150
b1 n9
b1 n71
b1 n84
b1 n97
b1 n128
b1 n160
#155
b0 n9
b0 n71
b0 n84
b0 n97
b0 n128
b0 n160
#160
b1 n9
b1 n71
b1 n84
b1 n97
b1 n128
b1 n160
#165
b0 n9
b0 n71
b0 n84
b0 n97
b0 n128
b0 n160
#170
b1 n9
b1 n71
b1 n84
b1 n97
b1 n128
b1 n160
#175
b0 n9
b0 n71
b0 n84
b0 n97
b0 n128
b0 n160
#180
b1 n9
b1 n71
b1 n84
b1 n97
b1 n128
b1 n160
#185
b0 n9
b0 n71
b0 n84
b0 n97
b0 n128
b0 n160
#190
b1 n9
b1 n71
b1 n84
b1 n97
b1 n128
b1 n160
#195
b0 n9
b0 n71
b0 n84
b0 n97
b0 n128
b0 n160
#200
b1 n35
b0 n20
b1 n9
b0 n79
b1 n71
b0 n92
b1 n84
b0 n105
b1 n97
b1 n145
b1 n128
b1 n163
b1 n160
